user_id;first_name;last_name;age;street;zip;city;order_id;cost;shipping_method;num_items
0;Simon;Hoffmann;27;Mühlenweg 34;44135;Dortmund;10;34;next day;3
8;Stefan;Hoffmann;48;Bachstraße 55;33602;Bielefeld;11;32;same day;2
3;Jens;Müller;48;Kirchweg 31;44135;Dortmund;12;13;regular;2
0;Simon;Hoffmann;26;Mühlenweg 34;44135;Dortmund;13;26;regular;2
5;Simon;Ackner;45;Düsseldorfer Straße 52;50667;Köln;14;64;next day;2
2;Max;Ackner;40;Dortmunder Weg 17;50667;Köln;15;32;next day;2
9;Jens;Ackner;23;Kirchweg 85;33602;Bielefeld;16;71;same day;4
8;Stefan;Hoffman;48;Bachstraße 55;33602;Bielefeld;17;57;regular;1
0;Simon;Hoffmann;27;Mühlenweg 35;44135;Dortmund;18;34;same day;2
3;Jens;Müller;48;Kirchweg 31;44135;Dortmund;19;67;regular;3
