user_id;name;age;address
0;Simon Hoffmann;27;Mühlenweg 34, 44135 Dortmund
1;Arno Müller;29;Lange Straße 33, 45127 Essen
2;Max Ackner;40;Dortmunder Weg 17, 50667 Köln
3;Jens Müller;48;Kirchweg 31, 44135 Dortmund
4;Simon Winter;46;Mühlenweg 92, 33602 Bielefeld
5;Simon Ackner;45;Düsseldorfer Straße 52, 50667 Köln
6;Moritz Meier;27;Dortmunder Straße 4, 40210 Düsseldorf
7;Moritz Eichmann;30;Hauptstraße 83, 45127 Essen
8;Stefan Hoffmann;48;Bachstraße 55, 33602 Bielefeld
9;Jens Ackner;23;Kirchweg 85, 33602 Bielefeld
